\relax 
\providecommand\hyper@newdestlabel[2]{}
\catcode `"\active 
\providecommand\HyperFirstAtBeginDocument{\AtBeginDocument}
\HyperFirstAtBeginDocument{\ifx\hyper@anchor\@undefined
\global\let\oldcontentsline\contentsline
\gdef\contentsline#1#2#3#4{\oldcontentsline{#1}{#2}{#3}}
\global\let\oldnewlabel\newlabel
\gdef\newlabel#1#2{\newlabelxx{#1}#2}
\gdef\newlabelxx#1#2#3#4#5#6{\oldnewlabel{#1}{{#2}{#3}}}
\AtEndDocument{\ifx\hyper@anchor\@undefined
\let\contentsline\oldcontentsline
\let\newlabel\oldnewlabel
\fi}
\fi}
\global\let\hyper@last\relax 
\gdef\HyperFirstAtBeginDocument#1{#1}
\providecommand\HyField@AuxAddToFields[1]{}
\providecommand\HyField@AuxAddToCoFields[2]{}
\babel@aux{brazil}{}
\@writefile{toc}{\contentsline {section}{\numberline {1}Responsabilidades do Participante}{3}{section.1}}
\@writefile{toc}{\contentsline {section}{\numberline {2}Especifica\IeC {\c c}\IeC {\~o}es dos Rob\IeC {\^o}s}{3}{section.2}}
\@writefile{toc}{\contentsline {subsection}{\numberline {2.1}}{3}{subsection.2.1}}
\@writefile{toc}{\contentsline {subsection}{\numberline {2.2}}{3}{subsection.2.2}}
\@writefile{toc}{\contentsline {subsection}{\numberline {2.3}}{3}{subsection.2.3}}
\@writefile{toc}{\contentsline {subsection}{\numberline {2.4}}{3}{subsection.2.4}}
\@writefile{toc}{\contentsline {section}{\numberline {3}O Percurso}{3}{section.3}}
\@writefile{toc}{\contentsline {subsection}{\numberline {3.1}}{3}{subsection.3.1}}
\@writefile{toc}{\contentsline {subsection}{\numberline {3.2}}{3}{subsection.3.2}}
\@writefile{toc}{\contentsline {subsection}{\numberline {3.3}}{4}{subsection.3.3}}
\@writefile{toc}{\contentsline {subsection}{\numberline {3.4}}{4}{subsection.3.4}}
\@writefile{lof}{\contentsline {figure}{\numberline {1}{\ignorespaces }}{4}{figure.1}}
\newlabel{fig:1}{{1}{4}{}{figure.1}{}}
\@writefile{toc}{\contentsline {subsection}{\numberline {3.5}}{4}{subsection.3.5}}
\@writefile{lof}{\contentsline {figure}{\numberline {2}{\ignorespaces }}{4}{figure.2}}
\newlabel{fig:2}{{2}{4}{}{figure.2}{}}
\@writefile{toc}{\contentsline {subsection}{\numberline {3.6}}{4}{subsection.3.6}}
\@writefile{lof}{\contentsline {figure}{\numberline {3}{\ignorespaces }}{5}{figure.3}}
\newlabel{fig:3}{{3}{5}{}{figure.3}{}}
\@writefile{toc}{\contentsline {subsection}{\numberline {3.7}}{5}{subsection.3.7}}
\@writefile{toc}{\contentsline {subsection}{\numberline {3.8}}{5}{subsection.3.8}}
\@writefile{lof}{\contentsline {figure}{\numberline {4}{\ignorespaces }}{5}{figure.4}}
\newlabel{fig:4}{{4}{5}{}{figure.4}{}}
\@writefile{toc}{\contentsline {subsection}{\numberline {3.9}}{5}{subsection.3.9}}
\@writefile{toc}{\contentsline {subsection}{\numberline {3.10}}{5}{subsection.3.10}}
\@writefile{toc}{\contentsline {subsection}{\numberline {3.11}}{5}{subsection.3.11}}
\@writefile{toc}{\contentsline {section}{\numberline {4}A Partida}{6}{section.4}}
\@writefile{toc}{\contentsline {subsection}{\numberline {4.1}Defini\IeC {\c c}\IeC {\~a}o:}{6}{subsection.4.1}}
\@writefile{toc}{\contentsline {subsection}{\numberline {4.2}}{6}{subsection.4.2}}
\@writefile{toc}{\contentsline {subsection}{\numberline {4.3}}{6}{subsection.4.3}}
\@writefile{toc}{\contentsline {subsection}{\numberline {4.4}}{6}{subsection.4.4}}
\@writefile{toc}{\contentsline {subsection}{\numberline {4.5}}{6}{subsection.4.5}}
\@writefile{toc}{\contentsline {subsection}{\numberline {4.6}}{6}{subsection.4.6}}
\@writefile{toc}{\contentsline {subsection}{\numberline {4.7}}{6}{subsection.4.7}}
\@writefile{toc}{\contentsline {subsection}{\numberline {4.8}}{6}{subsection.4.8}}
\@writefile{toc}{\contentsline {subsection}{\numberline {4.9}}{6}{subsection.4.9}}
\@writefile{toc}{\contentsline {subsection}{\numberline {4.10}}{6}{subsection.4.10}}
\@writefile{toc}{\contentsline {subsection}{\numberline {4.11}}{6}{subsection.4.11}}
\@writefile{toc}{\contentsline {subsection}{\numberline {4.12}}{6}{subsection.4.12}}
