\babel@toc {brazil}{}
\contentsline {section}{\numberline {1}Responsabilidades do Participante}{3}{section.1}
\contentsline {section}{\numberline {2}Especifica\IeC {\c c}\IeC {\~o}es dos Rob\IeC {\^o}s}{3}{section.2}
\contentsline {subsection}{\numberline {2.1}}{3}{subsection.2.1}
\contentsline {subsection}{\numberline {2.2}}{3}{subsection.2.2}
\contentsline {subsection}{\numberline {2.3}}{3}{subsection.2.3}
\contentsline {subsection}{\numberline {2.4}}{3}{subsection.2.4}
\contentsline {section}{\numberline {3}O Percurso}{3}{section.3}
\contentsline {subsection}{\numberline {3.1}}{3}{subsection.3.1}
\contentsline {subsection}{\numberline {3.2}}{3}{subsection.3.2}
\contentsline {subsection}{\numberline {3.3}}{4}{subsection.3.3}
\contentsline {subsection}{\numberline {3.4}}{4}{subsection.3.4}
\contentsline {subsection}{\numberline {3.5}}{4}{subsection.3.5}
\contentsline {subsection}{\numberline {3.6}}{4}{subsection.3.6}
\contentsline {subsection}{\numberline {3.7}}{5}{subsection.3.7}
\contentsline {subsection}{\numberline {3.8}}{5}{subsection.3.8}
\contentsline {subsection}{\numberline {3.9}}{5}{subsection.3.9}
\contentsline {subsection}{\numberline {3.10}}{5}{subsection.3.10}
\contentsline {subsection}{\numberline {3.11}}{5}{subsection.3.11}
\contentsline {section}{\numberline {4}A Partida}{6}{section.4}
\contentsline {subsection}{\numberline {4.1}Defini\IeC {\c c}\IeC {\~a}o:}{6}{subsection.4.1}
\contentsline {subsection}{\numberline {4.2}}{6}{subsection.4.2}
\contentsline {subsection}{\numberline {4.3}}{6}{subsection.4.3}
\contentsline {subsection}{\numberline {4.4}}{6}{subsection.4.4}
\contentsline {subsection}{\numberline {4.5}}{6}{subsection.4.5}
\contentsline {subsection}{\numberline {4.6}}{6}{subsection.4.6}
\contentsline {subsection}{\numberline {4.7}}{6}{subsection.4.7}
\contentsline {subsection}{\numberline {4.8}}{6}{subsection.4.8}
\contentsline {subsection}{\numberline {4.9}}{6}{subsection.4.9}
\contentsline {subsection}{\numberline {4.10}}{6}{subsection.4.10}
\contentsline {subsection}{\numberline {4.11}}{6}{subsection.4.11}
\contentsline {subsection}{\numberline {4.12}}{6}{subsection.4.12}
