\relax 
\providecommand\hyper@newdestlabel[2]{}
\catcode `"\active 
\providecommand\HyperFirstAtBeginDocument{\AtBeginDocument}
\HyperFirstAtBeginDocument{\ifx\hyper@anchor\@undefined
\global\let\oldcontentsline\contentsline
\gdef\contentsline#1#2#3#4{\oldcontentsline{#1}{#2}{#3}}
\global\let\oldnewlabel\newlabel
\gdef\newlabel#1#2{\newlabelxx{#1}#2}
\gdef\newlabelxx#1#2#3#4#5#6{\oldnewlabel{#1}{{#2}{#3}}}
\AtEndDocument{\ifx\hyper@anchor\@undefined
\let\contentsline\oldcontentsline
\let\newlabel\oldnewlabel
\fi}
\fi}
\global\let\hyper@last\relax 
\gdef\HyperFirstAtBeginDocument#1{#1}
\providecommand\HyField@AuxAddToFields[1]{}
\providecommand\HyField@AuxAddToCoFields[2]{}
\babel@aux{brazil}{}
\@writefile{toc}{\contentsline {section}{\numberline {1}Responsabilidades do Participante}{3}{section.1}}
\@writefile{toc}{\contentsline {section}{\numberline {2}Especifica\IeC {\c c}\IeC {\~a}o da Arena}{3}{section.2}}
\@writefile{toc}{\contentsline {section}{\numberline {3}Formato da Competi\IeC {\c c}\IeC {\~a}o}{3}{section.3}}
\@writefile{toc}{\contentsline {subsection}{\numberline {3.1}Formato de Dupla Elimina\IeC {\c c}\IeC {\~a}o Modificada}{3}{subsection.3.1}}
\@writefile{toc}{\contentsline {subsection}{\numberline {3.2}Defini\IeC {\c c}\IeC {\~a}o dos Combates Iniciais}{3}{subsection.3.2}}
\@writefile{toc}{\contentsline {subsection}{\numberline {3.3}Frequ\IeC {\^e}ncia dos \textit  {Rounds}}{4}{subsection.3.3}}
\@writefile{toc}{\contentsline {subsection}{\numberline {3.4}Dura\IeC {\c c}\IeC {\~a}o dos \textit  {Rounds}}{4}{subsection.3.4}}
\@writefile{toc}{\contentsline {subsection}{\numberline {3.5}Determina\IeC {\c c}\IeC {\~a}o do Vencedor do \textit  {Round}}{4}{subsection.3.5}}
\@writefile{toc}{\contentsline {subsubsection}{\numberline {3.5.1}Perda}{4}{subsubsection.3.5.1}}
\@writefile{toc}{\contentsline {paragraph}{\numberline {3.5.1.1}}{4}{paragraph.3.5.1.1}}
\@writefile{toc}{\contentsline {paragraph}{\numberline {3.5.1.2}}{4}{paragraph.3.5.1.2}}
\@writefile{toc}{\contentsline {paragraph}{\numberline {3.5.1.3}}{4}{paragraph.3.5.1.3}}
\@writefile{toc}{\contentsline {paragraph}{\numberline {3.5.1.4}}{4}{paragraph.3.5.1.4}}
\@writefile{toc}{\contentsline {paragraph}{\numberline {3.5.1.5}}{4}{paragraph.3.5.1.5}}
\@writefile{toc}{\contentsline {paragraph}{\numberline {3.5.1.6}}{4}{paragraph.3.5.1.6}}
\@writefile{toc}{\contentsline {subsubsection}{\numberline {3.5.2}Prender \& Suspender}{4}{subsubsection.3.5.2}}
\@writefile{toc}{\contentsline {paragraph}{\numberline {3.5.2.1}Encurralar}{5}{paragraph.3.5.2.1}}
\@writefile{toc}{\contentsline {paragraph}{\numberline {3.5.2.2}Libera\IeC {\c c}\IeC {\~a}o do Oponente Preso}{5}{paragraph.3.5.2.2}}
\@writefile{toc}{\contentsline {subsubsection}{\numberline {3.5.3}Rob\IeC {\^o}s Presos Entre Si}{5}{subsubsection.3.5.3}}
\@writefile{toc}{\contentsline {paragraph}{\numberline {3.5.3.1}Prote\IeC {\c c}\IeC {\~o}es Internas da Arena}{5}{paragraph.3.5.3.1}}
\@writefile{toc}{\contentsline {paragraph}{\numberline {3.5.3.2}Pontos Neutros de Rein\IeC {\'\i }cio}{5}{paragraph.3.5.3.2}}
\@writefile{toc}{\contentsline {subsubsection}{\numberline {3.5.4}Desist\IeC {\^e}ncia}{5}{subsubsection.3.5.4}}
\@writefile{toc}{\contentsline {subsubsection}{\numberline {3.5.5}N\IeC {\~a}o Comparecimento}{5}{subsubsection.3.5.5}}
\@writefile{toc}{\contentsline {subsubsection}{\numberline {3.5.6}Considera\IeC {\c c}\IeC {\~o}es Especiais para Multi\IeC {\discretionary {-}{}{}}Rob\IeC {\^o}s}{5}{subsubsection.3.5.6}}
\@writefile{toc}{\contentsline {subsection}{\numberline {3.6}Revis\IeC {\~a}o do Rob\IeC {\^o}}{6}{subsection.3.6}}
\@writefile{toc}{\contentsline {subsection}{\numberline {3.7}Poder dos ju\IeC {\'\i }zes}{6}{subsection.3.7}}
\@writefile{toc}{\contentsline {section}{\numberline {4}Aspectos Gerais}{6}{section.4}}
\@writefile{toc}{\contentsline {subsection}{\numberline {4.1}}{6}{subsection.4.1}}
\@writefile{toc}{\contentsline {subsection}{\numberline {4.2}}{6}{subsection.4.2}}
\@writefile{toc}{\contentsline {subsection}{\numberline {4.3}}{6}{subsection.4.3}}
\@writefile{toc}{\contentsline {subsection}{\numberline {4.4}}{6}{subsection.4.4}}
\@writefile{toc}{\contentsline {subsection}{\numberline {4.5}}{6}{subsection.4.5}}
\@writefile{toc}{\contentsline {subsection}{\numberline {4.6}}{6}{subsection.4.6}}
\@writefile{toc}{\contentsline {section}{\numberline {5}Classes de Peso}{6}{section.5}}
\@writefile{toc}{\contentsline {subsection}{\numberline {5.1}Classes de Peso Dispon\IeC {\'\i }veis}{6}{subsection.5.1}}
\@writefile{toc}{\contentsline {subsection}{\numberline {5.2}Limite m\IeC {\'\i }nimo de peso}{7}{subsection.5.2}}
\newlabel{sec:limite-peso}{{5.2}{7}{Limite mínimo de peso}{subsection.5.2}{}}
\@writefile{toc}{\contentsline {subsection}{\numberline {5.3}Rob\IeC {\^o}s Multi\IeC {\discretionary {-}{}{}}bot}{7}{subsection.5.3}}
\@writefile{toc}{\contentsline {section}{\numberline {6}Inspe\IeC {\c c}\IeC {\~a}o T\IeC {\'e}cnica / Seguran\IeC {\c c}a}{7}{section.6}}
\@writefile{toc}{\contentsline {subsection}{\numberline {6.1}Inspe\IeC {\c c}\IeC {\~a}o Est\IeC {\'a}tica}{7}{subsection.6.1}}
\@writefile{toc}{\contentsline {subsubsection}{\numberline {6.1.1}Itens verificados:}{7}{subsubsection.6.1.1}}
\@writefile{toc}{\contentsline {paragraph}{\numberline {6.1.1.1}}{7}{paragraph.6.1.1.1}}
\@writefile{toc}{\contentsline {paragraph}{\numberline {6.1.1.2}}{7}{paragraph.6.1.1.2}}
\@writefile{toc}{\contentsline {paragraph}{\numberline {6.1.1.3}}{7}{paragraph.6.1.1.3}}
\@writefile{toc}{\contentsline {paragraph}{\numberline {6.1.1.4}}{7}{paragraph.6.1.1.4}}
\@writefile{toc}{\contentsline {paragraph}{\numberline {6.1.1.5}}{7}{paragraph.6.1.1.5}}
\@writefile{toc}{\contentsline {paragraph}{\numberline {6.1.1.6}}{7}{paragraph.6.1.1.6}}
\@writefile{toc}{\contentsline {paragraph}{\numberline {6.1.1.7}}{7}{paragraph.6.1.1.7}}
\@writefile{toc}{\contentsline {paragraph}{\numberline {6.1.1.8}}{7}{paragraph.6.1.1.8}}
\@writefile{toc}{\contentsline {paragraph}{\numberline {6.1.1.9}}{7}{paragraph.6.1.1.9}}
\@writefile{toc}{\contentsline {paragraph}{\numberline {6.1.1.10}}{7}{paragraph.6.1.1.10}}
\@writefile{toc}{\contentsline {subsubsection}{\numberline {6.1.2}Dimens\IeC {\~o}es Limite}{8}{subsubsection.6.1.2}}
\@writefile{toc}{\contentsline {subsubsection}{\numberline {6.1.3}Restri\IeC {\c c}\IeC {\~o}es para Armas}{8}{subsubsection.6.1.3}}
\@writefile{toc}{\contentsline {subsection}{\numberline {6.2}Inspe\IeC {\c c}\IeC {\~a}o din\IeC {\^a}mica}{8}{subsection.6.2}}
\@writefile{toc}{\contentsline {subsubsection}{\numberline {6.2.1}Itens verificados:}{8}{subsubsection.6.2.1}}
\@writefile{toc}{\contentsline {paragraph}{\numberline {6.2.1.1}}{8}{paragraph.6.2.1.1}}
\@writefile{toc}{\contentsline {paragraph}{\numberline {6.2.1.2}}{8}{paragraph.6.2.1.2}}
\@writefile{toc}{\contentsline {paragraph}{\numberline {6.2.1.3}}{8}{paragraph.6.2.1.3}}
\@writefile{toc}{\contentsline {paragraph}{\numberline {6.2.1.4}}{8}{paragraph.6.2.1.4}}
\@writefile{toc}{\contentsline {paragraph}{\numberline {6.2.1.5}}{8}{paragraph.6.2.1.5}}
\@writefile{toc}{\contentsline {paragraph}{\numberline {6.2.1.6}}{8}{paragraph.6.2.1.6}}
\@writefile{toc}{\contentsline {subsection}{\numberline {6.3}Discuss\IeC {\~o}es T\IeC {\'e}cnicas / Seguran\IeC {\c c}a}{8}{subsection.6.3}}
\@writefile{toc}{\contentsline {subsubsection}{\numberline {6.3.1}Falhar na Inspe\IeC {\c c}\IeC {\~a}o}{8}{subsubsection.6.3.1}}
\@writefile{toc}{\contentsline {subsubsection}{\numberline {6.3.2} Autoridade dos oficiais de Seguran\IeC {\c c}a}{9}{subsubsection.6.3.2}}
\@writefile{toc}{\contentsline {section}{\numberline {7}Mobilidade}{9}{section.7}}
\@writefile{toc}{\contentsline {section}{\numberline {8}Especifica\IeC {\c c}\IeC {\~o}es de Controle}{9}{section.8}}
\@writefile{toc}{\contentsline {subsection}{\numberline {8.1}}{9}{subsection.8.1}}
\@writefile{toc}{\contentsline {subsection}{\numberline {8.2}}{9}{subsection.8.2}}
\@writefile{toc}{\contentsline {subsubsection}{\numberline {8.2.1}}{9}{subsubsection.8.2.1}}
\@writefile{toc}{\contentsline {subsubsection}{\numberline {8.2.2}}{9}{subsubsection.8.2.2}}
\@writefile{toc}{\contentsline {subsubsection}{\numberline {8.2.3}}{9}{subsubsection.8.2.3}}
\@writefile{toc}{\contentsline {subsubsection}{\numberline {8.2.4}}{9}{subsubsection.8.2.4}}
\@writefile{toc}{\contentsline {subsubsection}{\numberline {8.2.5}}{10}{subsubsection.8.2.5}}
\@writefile{toc}{\contentsline {subsection}{\numberline {8.3}}{10}{subsection.8.3}}
\@writefile{toc}{\contentsline {subsection}{\numberline {8.4}}{10}{subsection.8.4}}
\@writefile{toc}{\contentsline {section}{\numberline {9}Rob\IeC {\^o}s Aut\IeC {\^o}nomos/Semi-\IeC {\discretionary {-}{}{}}Aut\IeC {\^o}nomos}{10}{section.9}}
\@writefile{toc}{\contentsline {subsection}{\numberline {9.1}}{10}{subsection.9.1}}
\@writefile{toc}{\contentsline {subsection}{\numberline {9.2}}{10}{subsection.9.2}}
\@writefile{toc}{\contentsline {subsubsection}{\numberline {9.2.1}}{10}{subsubsection.9.2.1}}
\@writefile{toc}{\contentsline {subsubsection}{\numberline {9.2.2}}{10}{subsubsection.9.2.2}}
\@writefile{toc}{\contentsline {subsubsection}{\numberline {9.2.3}}{10}{subsubsection.9.2.3}}
\@writefile{toc}{\contentsline {section}{\numberline {10}Baterias e For\IeC {\c c}a}{11}{section.10}}
\@writefile{toc}{\contentsline {subsection}{\numberline {10.1}}{11}{subsection.10.1}}
\@writefile{toc}{\contentsline {subsection}{\numberline {10.2}}{11}{subsection.10.2}}
\@writefile{toc}{\contentsline {subsection}{\numberline {10.3}}{11}{subsection.10.3}}
\@writefile{toc}{\contentsline {subsection}{\numberline {10.4}}{11}{subsection.10.4}}
\@writefile{toc}{\contentsline {subsection}{\numberline {10.5}}{11}{subsection.10.5}}
\@writefile{toc}{\contentsline {subsection}{\numberline {10.6}}{11}{subsection.10.6}}
\@writefile{toc}{\contentsline {section}{\numberline {11}Sistemas Pneum\IeC {\'a}ticos}{11}{section.11}}
\@writefile{toc}{\contentsline {subsection}{\numberline {11.1}}{11}{subsection.11.1}}
\@writefile{toc}{\contentsline {subsection}{\numberline {11.2}}{11}{subsection.11.2}}
\@writefile{toc}{\contentsline {subsubsection}{\numberline {11.2.1}}{11}{subsubsection.11.2.1}}
\@writefile{toc}{\contentsline {subsubsection}{\numberline {11.2.2}}{11}{subsubsection.11.2.2}}
\@writefile{toc}{\contentsline {subsubsection}{\numberline {11.2.3}}{12}{subsubsection.11.2.3}}
\@writefile{toc}{\contentsline {subsection}{\numberline {11.3}}{12}{subsection.11.3}}
\@writefile{toc}{\contentsline {subsection}{\numberline {11.4}}{12}{subsection.11.4}}
\@writefile{toc}{\contentsline {subsection}{\numberline {11.5}}{12}{subsection.11.5}}
\@writefile{toc}{\contentsline {subsection}{\numberline {11.6}}{12}{subsection.11.6}}
\@writefile{toc}{\contentsline {subsection}{\numberline {11.7}}{12}{subsection.11.7}}
\@writefile{toc}{\contentsline {subsection}{\numberline {11.8}}{12}{subsection.11.8}}
\@writefile{toc}{\contentsline {subsection}{\numberline {11.9}}{12}{subsection.11.9}}
\@writefile{toc}{\contentsline {subsection}{\numberline {11.10}}{12}{subsection.11.10}}
\@writefile{toc}{\contentsline {subsection}{\numberline {11.11}}{12}{subsection.11.11}}
\@writefile{toc}{\contentsline {subsection}{\numberline {11.12}}{13}{subsection.11.12}}
\@writefile{toc}{\contentsline {subsection}{\numberline {11.13}}{13}{subsection.11.13}}
\@writefile{toc}{\contentsline {subsection}{\numberline {11.14}}{13}{subsection.11.14}}
\@writefile{toc}{\contentsline {subsection}{\numberline {11.15}}{13}{subsection.11.15}}
\@writefile{toc}{\contentsline {section}{\numberline {12}Sistemas Hidr\IeC {\'a}ulicos}{13}{section.12}}
\@writefile{toc}{\contentsline {subsection}{\numberline {12.1}}{13}{subsection.12.1}}
\@writefile{toc}{\contentsline {subsection}{\numberline {12.2}}{13}{subsection.12.2}}
\@writefile{toc}{\contentsline {subsection}{\numberline {12.3}}{13}{subsection.12.3}}
\@writefile{toc}{\contentsline {subsection}{\numberline {12.4}}{13}{subsection.12.4}}
\@writefile{toc}{\contentsline {subsection}{\numberline {12.5}}{13}{subsection.12.5}}
\@writefile{toc}{\contentsline {subsection}{\numberline {12.6}}{13}{subsection.12.6}}
\@writefile{toc}{\contentsline {subsection}{\numberline {12.7}}{14}{subsection.12.7}}
\@writefile{toc}{\contentsline {subsection}{\numberline {12.8}}{14}{subsection.12.8}}
\@writefile{toc}{\contentsline {subsection}{\numberline {12.9}}{14}{subsection.12.9}}
\@writefile{toc}{\contentsline {section}{\numberline {13}Tanques de Armazenamento de G\IeC {\'a}s e Pressuriza\IeC {\c c}\IeC {\~a}o}{14}{section.13}}
\@writefile{toc}{\contentsline {section}{\numberline {14}Motores a Combust\IeC {\~a}o e Combust\IeC {\'\i }veis Permitidos}{14}{section.14}}
\@writefile{toc}{\contentsline {subsection}{\numberline {14.1}}{14}{subsection.14.1}}
\@writefile{toc}{\contentsline {subsubsection}{\numberline {14.1.1}}{14}{subsubsection.14.1.1}}
\@writefile{toc}{\contentsline {subsubsection}{\numberline {14.1.2}}{14}{subsubsection.14.1.2}}
\@writefile{toc}{\contentsline {subsubsection}{\numberline {14.1.3}}{14}{subsubsection.14.1.3}}
\@writefile{toc}{\contentsline {subsection}{\numberline {14.2}}{14}{subsection.14.2}}
\@writefile{toc}{\contentsline {subsection}{\numberline {14.3}}{14}{subsection.14.3}}
\@writefile{toc}{\contentsline {subsection}{\numberline {14.4}}{14}{subsection.14.4}}
\@writefile{toc}{\contentsline {subsection}{\numberline {14.5}}{15}{subsection.14.5}}
\@writefile{toc}{\contentsline {subsection}{\numberline {14.6}}{15}{subsection.14.6}}
\@writefile{toc}{\contentsline {subsection}{\numberline {14.7}}{15}{subsection.14.7}}
\@writefile{toc}{\contentsline {subsection}{\numberline {14.8}}{15}{subsection.14.8}}
\@writefile{toc}{\contentsline {section}{\numberline {15}Armas Girat\IeC {\'o}rias ou Rob\IeC {\^o}s que Giram no Pr\IeC {\'o}prio Eixo s\IeC {\~a}o Permitidos}{15}{section.15}}
\@writefile{toc}{\contentsline {subsection}{\numberline {15.1}}{15}{subsection.15.1}}
\@writefile{toc}{\contentsline {subsection}{\numberline {15.2}}{15}{subsection.15.2}}
\@writefile{toc}{\contentsline {section}{\numberline {16}Molas e Armazenadores de Energia}{15}{section.16}}
\@writefile{toc}{\contentsline {subsection}{\numberline {16.1}}{15}{subsection.16.1}}
\@writefile{toc}{\contentsline {subsubsection}{\numberline {16.1.1}}{15}{subsubsection.16.1.1}}
\@writefile{toc}{\contentsline {subsubsection}{\numberline {16.1.2}}{15}{subsubsection.16.1.2}}
\@writefile{toc}{\contentsline {subsection}{\numberline {16.2}}{15}{subsection.16.2}}
\@writefile{toc}{\contentsline {subsubsection}{\numberline {16.2.1}}{15}{subsubsection.16.2.1}}
\@writefile{toc}{\contentsline {subsection}{\numberline {16.3}}{15}{subsection.16.3}}
\@writefile{toc}{\contentsline {section}{\numberline {17}Armas e Materiais Proibidos}{16}{section.17}}
\@writefile{toc}{\contentsline {subsection}{\numberline {17.1}}{16}{subsection.17.1}}
\@writefile{toc}{\contentsline {subsubsection}{\numberline {17.1.1}}{16}{subsubsection.17.1.1}}
\@writefile{toc}{\contentsline {subsubsection}{\numberline {17.1.2}}{16}{subsubsection.17.1.2}}
\@writefile{toc}{\contentsline {subsubsection}{\numberline {17.1.3}}{16}{subsubsection.17.1.3}}
\@writefile{toc}{\contentsline {subsubsection}{\numberline {17.1.4}}{16}{subsubsection.17.1.4}}
\@writefile{toc}{\contentsline {subsubsection}{\numberline {17.1.5}}{16}{subsubsection.17.1.5}}
\@writefile{toc}{\contentsline {subsection}{\numberline {17.2}}{16}{subsection.17.2}}
\@writefile{toc}{\contentsline {subsubsection}{\numberline {17.2.1}}{16}{subsubsection.17.2.1}}
\@writefile{toc}{\contentsline {subsubsection}{\numberline {17.2.2}}{16}{subsubsection.17.2.2}}
\@writefile{toc}{\contentsline {subsubsection}{\numberline {17.2.3}}{16}{subsubsection.17.2.3}}
\@writefile{toc}{\contentsline {subsection}{\numberline {17.3}}{16}{subsection.17.3}}
\@writefile{toc}{\contentsline {subsection}{\numberline {17.4}}{16}{subsection.17.4}}
\@writefile{toc}{\contentsline {subsubsection}{\numberline {17.4.1}}{16}{subsubsection.17.4.1}}
\@writefile{toc}{\contentsline {subsubsection}{\numberline {17.4.2}}{16}{subsubsection.17.4.2}}
\@writefile{toc}{\contentsline {subsubsection}{\numberline {17.4.3}}{16}{subsubsection.17.4.3}}
\@writefile{toc}{\contentsline {paragraph}{\numberline {17.4.3.1}}{16}{paragraph.17.4.3.1}}
\@writefile{toc}{\contentsline {paragraph}{\numberline {17.4.3.2}}{17}{paragraph.17.4.3.2}}
\@writefile{toc}{\contentsline {subsection}{\numberline {17.5}}{17}{subsection.17.5}}
\@writefile{toc}{\contentsline {subsection}{\numberline {17.6}}{17}{subsection.17.6}}
\@writefile{toc}{\contentsline {subsection}{\numberline {17.7}}{17}{subsection.17.7}}
\@writefile{toc}{\contentsline {subsection}{\numberline {17.8}}{17}{subsection.17.8}}
\@writefile{toc}{\contentsline {section}{\numberline {18}Descri\IeC {\c c}\IeC {\~a}o de Armas Especiais Permitidas neste Evento}{17}{section.18}}
\@writefile{toc}{\contentsline {subsection}{\numberline {18.1}}{17}{subsection.18.1}}
\@writefile{toc}{\contentsline {subsection}{\numberline {18.2}}{17}{subsection.18.2}}
\@writefile{toc}{\contentsline {subsection}{\numberline {18.3}}{17}{subsection.18.3}}
\@writefile{toc}{\contentsline {subsubsection}{\numberline {18.3.1}}{17}{subsubsection.18.3.1}}
\@writefile{toc}{\contentsline {section}{\numberline {19}Regras e Procedimentos de Seguran\IeC {\c c}a}{17}{section.19}}
\@writefile{toc}{\contentsline {subsection}{\numberline {19.1}}{17}{subsection.19.1}}
\@writefile{toc}{\contentsline {subsection}{\numberline {19.2}}{17}{subsection.19.2}}
\@writefile{toc}{\contentsline {subsection}{\numberline {19.3}}{18}{subsection.19.3}}
\@writefile{toc}{\contentsline {subsection}{\numberline {19.4}}{18}{subsection.19.4}}
\@writefile{toc}{\contentsline {subsection}{\numberline {19.5}}{18}{subsection.19.5}}
\@writefile{toc}{\contentsline {subsection}{\numberline {19.6}}{18}{subsection.19.6}}
\@writefile{toc}{\contentsline {subsection}{\numberline {19.7}}{18}{subsection.19.7}}
\@writefile{toc}{\contentsline {subsection}{\numberline {19.8}}{18}{subsection.19.8}}
\@writefile{toc}{\contentsline {subsubsection}{\numberline {19.8.1}}{18}{subsubsection.19.8.1}}
\@writefile{toc}{\contentsline {subsubsection}{\numberline {19.8.2}}{18}{subsubsection.19.8.2}}
\@writefile{toc}{\contentsline {subsubsection}{\numberline {19.8.3}}{18}{subsubsection.19.8.3}}
\@writefile{toc}{\contentsline {subsubsection}{\numberline {19.8.4}}{18}{subsubsection.19.8.4}}
\@writefile{toc}{\contentsline {subsubsection}{\numberline {19.8.5}}{18}{subsubsection.19.8.5}}
\@writefile{toc}{\contentsline {subsubsection}{\numberline {19.8.6}}{18}{subsubsection.19.8.6}}
\@writefile{toc}{\contentsline {subsubsection}{\numberline {19.8.7}}{19}{subsubsection.19.8.7}}
\@writefile{toc}{\contentsline {subsection}{\numberline {19.9}}{19}{subsection.19.9}}
\@writefile{toc}{\contentsline {subsection}{\numberline {19.10}}{19}{subsection.19.10}}
\@writefile{toc}{\contentsline {subsection}{\numberline {19.11}}{19}{subsection.19.11}}
\@writefile{toc}{\contentsline {subsection}{\numberline {19.12}}{19}{subsection.19.12}}
\@writefile{toc}{\contentsline {subsection}{\numberline {19.13}}{19}{subsection.19.13}}
\@writefile{toc}{\contentsline {subsection}{\numberline {19.14}}{19}{subsection.19.14}}
\@writefile{toc}{\contentsline {subsubsection}{\numberline {19.14.1}}{19}{subsubsection.19.14.1}}
\@writefile{toc}{\contentsline {subsubsection}{\numberline {19.14.2}}{19}{subsubsection.19.14.2}}
\@writefile{toc}{\contentsline {subsubsection}{\numberline {19.14.3}}{19}{subsubsection.19.14.3}}
\@writefile{toc}{\contentsline {subsubsection}{\numberline {19.14.4}}{19}{subsubsection.19.14.4}}
\@writefile{toc}{\contentsline {subsubsection}{\numberline {19.14.5}}{19}{subsubsection.19.14.5}}
\@writefile{toc}{\contentsline {subsubsection}{\numberline {19.14.6}}{19}{subsubsection.19.14.6}}
\@writefile{toc}{\contentsline {subsubsection}{\numberline {19.14.7}}{19}{subsubsection.19.14.7}}
\@writefile{toc}{\contentsline {subsubsection}{\numberline {19.14.8}}{20}{subsubsection.19.14.8}}
\@writefile{toc}{\contentsline {subsubsection}{\numberline {19.14.9}}{20}{subsubsection.19.14.9}}
\@writefile{toc}{\contentsline {section}{\numberline {20}Rob\IeC {\^o}s com Direito de Nome e/ou Imagem e Direitos Autorais}{20}{section.20}}
