\relax 
\providecommand\hyper@newdestlabel[2]{}
\catcode `"\active 
\providecommand\HyperFirstAtBeginDocument{\AtBeginDocument}
\HyperFirstAtBeginDocument{\ifx\hyper@anchor\@undefined
\global\let\oldcontentsline\contentsline
\gdef\contentsline#1#2#3#4{\oldcontentsline{#1}{#2}{#3}}
\global\let\oldnewlabel\newlabel
\gdef\newlabel#1#2{\newlabelxx{#1}#2}
\gdef\newlabelxx#1#2#3#4#5#6{\oldnewlabel{#1}{{#2}{#3}}}
\AtEndDocument{\ifx\hyper@anchor\@undefined
\let\contentsline\oldcontentsline
\let\newlabel\oldnewlabel
\fi}
\fi}
\global\let\hyper@last\relax 
\gdef\HyperFirstAtBeginDocument#1{#1}
\providecommand\HyField@AuxAddToFields[1]{}
\providecommand\HyField@AuxAddToCoFields[2]{}
\babel@aux{brazil}{}
\@writefile{toc}{\contentsline {section}{\numberline {1}Responsabilidades do Participante}{3}{section.1}}
\@writefile{toc}{\contentsline {section}{\numberline {2}Modalidades}{3}{section.2}}
\@writefile{toc}{\contentsline {subsection}{\numberline {2.1}}{3}{subsection.2.1}}
\@writefile{toc}{\contentsline {subsection}{\numberline {2.2}}{3}{subsection.2.2}}
\@writefile{toc}{\contentsline {subsubsection}{\numberline {2.2.1}}{3}{subsubsection.2.2.1}}
\@writefile{toc}{\contentsline {subsubsection}{\numberline {2.2.2}}{3}{subsubsection.2.2.2}}
\@writefile{toc}{\contentsline {subsubsection}{\numberline {2.2.3}}{3}{subsubsection.2.2.3}}
\@writefile{toc}{\contentsline {subsubsection}{\numberline {2.2.4}}{3}{subsubsection.2.2.4}}
\@writefile{toc}{\contentsline {subsubsection}{\numberline {2.2.5}}{3}{subsubsection.2.2.5}}
\@writefile{toc}{\contentsline {subsubsection}{\numberline {2.2.6}}{3}{subsubsection.2.2.6}}
\@writefile{toc}{\contentsline {subsubsection}{\numberline {2.2.7}}{4}{subsubsection.2.2.7}}
\@writefile{toc}{\contentsline {subsubsection}{\numberline {2.2.8}}{4}{subsubsection.2.2.8}}
\@writefile{toc}{\contentsline {subsubsection}{\numberline {2.2.9}}{4}{subsubsection.2.2.9}}
\@writefile{toc}{\contentsline {subsubsection}{\numberline {2.2.10}}{4}{subsubsection.2.2.10}}
\@writefile{toc}{\contentsline {subsection}{\numberline {2.3}}{4}{subsection.2.3}}
\@writefile{toc}{\contentsline {subsubsection}{\numberline {2.3.1}}{4}{subsubsection.2.3.1}}
\@writefile{toc}{\contentsline {subsection}{\numberline {2.4}}{4}{subsection.2.4}}
\@writefile{toc}{\contentsline {subsection}{\numberline {2.5}}{4}{subsection.2.5}}
\@writefile{toc}{\contentsline {subsection}{\numberline {2.6}}{4}{subsection.2.6}}
\@writefile{toc}{\contentsline {subsubsection}{\numberline {2.6.1}}{4}{subsubsection.2.6.1}}
\@writefile{toc}{\contentsline {subsubsection}{\numberline {2.6.2}}{4}{subsubsection.2.6.2}}
\@writefile{toc}{\contentsline {subsubsection}{\numberline {2.6.3}}{4}{subsubsection.2.6.3}}
\@writefile{toc}{\contentsline {subsection}{\numberline {2.7}}{4}{subsection.2.7}}
\@writefile{toc}{\contentsline {subsection}{\numberline {2.8}}{4}{subsection.2.8}}
\@writefile{toc}{\contentsline {subsubsection}{\numberline {2.8.1}}{4}{subsubsection.2.8.1}}
\@writefile{toc}{\contentsline {subsubsection}{\numberline {2.8.2}}{5}{subsubsection.2.8.2}}
\@writefile{toc}{\contentsline {subsubsection}{\numberline {2.8.3}}{5}{subsubsection.2.8.3}}
\@writefile{toc}{\contentsline {subsection}{\numberline {2.9}}{5}{subsection.2.9}}
\@writefile{toc}{\contentsline {section}{\numberline {3}Estado Resolvido}{5}{section.3}}
\@writefile{toc}{\contentsline {subsection}{\numberline {3.1}}{5}{subsection.3.1}}
\@writefile{toc}{\contentsline {subsection}{\numberline {3.2}}{5}{subsection.3.2}}
\@writefile{toc}{\contentsline {subsection}{\numberline {3.3}}{5}{subsection.3.3}}
\@writefile{toc}{\contentsline {subsection}{\numberline {3.4}}{5}{subsection.3.4}}
\@writefile{toc}{\contentsline {subsubsection}{\numberline {3.4.1}}{5}{subsubsection.3.4.1}}
\@writefile{toc}{\contentsline {subsubsection}{\numberline {3.4.2}}{5}{subsubsection.3.4.2}}
\@writefile{toc}{\contentsline {subsubsection}{\numberline {3.4.3}}{5}{subsubsection.3.4.3}}
\@writefile{toc}{\contentsline {subsubsection}{\numberline {3.4.4}}{5}{subsubsection.3.4.4}}
\newlabel{sec:lim-desalinhamento}{{3.5}{5}{}{subsection.3.5}{}}
\@writefile{toc}{\contentsline {subsection}{\numberline {3.5}}{5}{subsection.3.5}}
\@writefile{toc}{\contentsline {subsubsection}{\numberline {3.5.1}}{5}{subsubsection.3.5.1}}
\@writefile{toc}{\contentsline {section}{\numberline {4}Incidentes}{5}{section.4}}
\@writefile{toc}{\contentsline {subsection}{\numberline {4.1}Incidentes incluem:}{5}{subsection.4.1}}
\@writefile{toc}{\contentsline {subsubsection}{\numberline {4.1.1}}{6}{subsubsection.4.1.1}}
\@writefile{toc}{\contentsline {subsubsection}{\numberline {4.1.2}}{6}{subsubsection.4.1.2}}
\@writefile{toc}{\contentsline {subsubsection}{\numberline {4.1.3}}{6}{subsubsection.4.1.3}}
\@writefile{toc}{\contentsline {subsection}{\numberline {4.2}}{6}{subsection.4.2}}
\@writefile{toc}{\contentsline {subsection}{\numberline {4.3}}{6}{subsection.4.3}}
\@writefile{toc}{\contentsline {subsubsection}{\numberline {4.3.1}}{6}{subsubsection.4.3.1}}
\@writefile{toc}{\contentsline {subsubsection}{\numberline {4.3.2}}{6}{subsubsection.4.3.2}}
\@writefile{toc}{\contentsline {subsubsection}{\numberline {4.3.3}}{6}{subsubsection.4.3.3}}
\@writefile{toc}{\contentsline {subsection}{\numberline {4.4}}{6}{subsection.4.4}}
\@writefile{toc}{\contentsline {section}{\numberline {5}Resolu\IeC {\c c}\IeC {\~a}o em Velocidade ("Speed Solving")}{6}{section.5}}
\newlabel{sec:resolucao-velocidade}{{5}{6}{Resolução em Velocidade ("Speed Solving")}{section.5}{}}
\@writefile{toc}{\contentsline {subsection}{\numberline {5.1}Resolu\IeC {\c c}\IeC {\~o}es em velocidade devem seguir o procedimento seguinte:}{6}{subsection.5.1}}
\@writefile{toc}{\contentsline {subsubsection}{\numberline {5.1.1}}{6}{subsubsection.5.1.1}}
\@writefile{toc}{\contentsline {paragraph}{\numberline {5.1.1.1}}{6}{paragraph.5.1.1.1}}
\@writefile{toc}{\contentsline {paragraph}{\numberline {5.1.1.2}}{7}{paragraph.5.1.1.2}}
\@writefile{toc}{\contentsline {paragraph}{\numberline {5.1.1.3}}{7}{paragraph.5.1.1.3}}
\@writefile{toc}{\contentsline {paragraph}{\numberline {5.1.1.4}}{7}{paragraph.5.1.1.4}}
\@writefile{toc}{\contentsline {paragraph}{\numberline {5.1.1.5}}{7}{paragraph.5.1.1.5}}
\@writefile{toc}{\contentsline {subsubsection}{\numberline {5.1.2}}{7}{subsubsection.5.1.2}}
\@writefile{toc}{\contentsline {paragraph}{\numberline {5.1.2.1}}{7}{paragraph.5.1.2.1}}
\@writefile{toc}{\contentsline {paragraph}{\numberline {5.1.2.2}}{7}{paragraph.5.1.2.2}}
\@writefile{toc}{\contentsline {subsubsection}{\numberline {5.1.3}}{7}{subsubsection.5.1.3}}
\@writefile{toc}{\contentsline {subsection}{\numberline {5.2}Embaralhamento:}{7}{subsection.5.2}}
\@writefile{toc}{\contentsline {subsubsection}{\numberline {5.2.1}}{7}{subsubsection.5.2.1}}
\@writefile{toc}{\contentsline {subsubsection}{\numberline {5.2.2}}{7}{subsubsection.5.2.2}}
\@writefile{toc}{\contentsline {paragraph}{\numberline {5.2.2.1}}{8}{paragraph.5.2.2.1}}
\@writefile{toc}{\contentsline {subsubsection}{\numberline {5.2.3}}{8}{subsubsection.5.2.3}}
\@writefile{toc}{\contentsline {paragraph}{\numberline {5.2.3.1}}{8}{paragraph.5.2.3.1}}
\@writefile{toc}{\contentsline {subsubsection}{\numberline {5.2.4}}{8}{subsubsection.5.2.4}}
\@writefile{toc}{\contentsline {paragraph}{\numberline {5.2.4.1}}{8}{paragraph.5.2.4.1}}
\@writefile{toc}{\contentsline {subsubsection}{\numberline {5.2.5}}{8}{subsubsection.5.2.5}}
\@writefile{toc}{\contentsline {paragraph}{\numberline {5.2.5.1}}{8}{paragraph.5.2.5.1}}
\@writefile{toc}{\contentsline {subsection}{\numberline {5.3}Inspe\IeC {\c c}\IeC {\~a}o:}{8}{subsection.5.3}}
\@writefile{toc}{\contentsline {subsubsection}{\numberline {5.3.1}}{8}{subsubsection.5.3.1}}
\@writefile{toc}{\contentsline {paragraph}{\numberline {5.3.1.1}}{8}{paragraph.5.3.1.1}}
\@writefile{toc}{\contentsline {subsubsection}{\numberline {5.3.2}}{8}{subsubsection.5.3.2}}
\@writefile{toc}{\contentsline {paragraph}{\numberline {5.3.2.1}}{8}{paragraph.5.3.2.1}}
\@writefile{toc}{\contentsline {paragraph}{\numberline {5.3.2.2}}{8}{paragraph.5.3.2.2}}
\@writefile{toc}{\contentsline {subsubsection}{\numberline {5.3.3}}{8}{subsubsection.5.3.3}}
\@writefile{toc}{\contentsline {paragraph}{\numberline {5.3.3.1}}{9}{paragraph.5.3.3.1}}
\@writefile{toc}{\contentsline {paragraph}{\numberline {5.3.3.2}}{9}{paragraph.5.3.3.2}}
\@writefile{toc}{\contentsline {paragraph}{\numberline {5.3.3.3}}{9}{paragraph.5.3.3.3}}
\@writefile{toc}{\contentsline {paragraph}{\numberline {5.3.3.4}}{9}{paragraph.5.3.3.4}}
\@writefile{toc}{\contentsline {subsubsection}{\numberline {5.3.4}}{9}{subsubsection.5.3.4}}
\@writefile{toc}{\contentsline {paragraph}{\numberline {5.3.4.1}}{9}{paragraph.5.3.4.1}}
\@writefile{toc}{\contentsline {paragraph}{\numberline {5.3.4.2}}{9}{paragraph.5.3.4.2}}
\@writefile{toc}{\contentsline {paragraph}{\numberline {5.3.4.3}}{9}{paragraph.5.3.4.3}}
\@writefile{toc}{\contentsline {subsection}{\numberline {5.4}Iniciando a resolu\IeC {\c c}\IeC {\~a}o:}{9}{subsection.5.4}}
\@writefile{toc}{\contentsline {subsubsection}{\numberline {5.4.1}}{9}{subsubsection.5.4.1}}
\@writefile{toc}{\contentsline {paragraph}{\numberline {5.4.1.1}}{9}{paragraph.5.4.1.1}}
\@writefile{toc}{\contentsline {subsubsection}{\numberline {5.4.2}}{9}{subsubsection.5.4.2}}
\@writefile{toc}{\contentsline {paragraph}{\numberline {5.4.2.1}}{9}{paragraph.5.4.2.1}}
\@writefile{toc}{\contentsline {paragraph}{\numberline {5.4.2.2}}{9}{paragraph.5.4.2.2}}
\@writefile{toc}{\contentsline {paragraph}{\numberline {5.4.2.3}}{10}{paragraph.5.4.2.3}}
\@writefile{toc}{\contentsline {subsubsection}{\numberline {5.4.3}}{10}{subsubsection.5.4.3}}
\@writefile{toc}{\contentsline {subsection}{\numberline {5.5}Durante a resolu\IeC {\c c}\IeC {\~a}o:}{10}{subsection.5.5}}
\@writefile{toc}{\contentsline {subsubsection}{\numberline {5.5.1}}{10}{subsubsection.5.5.1}}
\@writefile{toc}{\contentsline {subsubsection}{\numberline {5.5.2}}{10}{subsubsection.5.5.2}}
\@writefile{toc}{\contentsline {subsection}{\numberline {5.6}Finalizando a resolu\IeC {\c c}\IeC {\~a}o:}{10}{subsection.5.6}}
\@writefile{toc}{\contentsline {subsubsection}{\numberline {5.6.1}}{10}{subsubsection.5.6.1}}
\@writefile{toc}{\contentsline {paragraph}{\numberline {5.6.1.1}}{10}{paragraph.5.6.1.1}}
\@writefile{toc}{\contentsline {paragraph}{\numberline {5.6.1.2}}{10}{paragraph.5.6.1.2}}
\@writefile{toc}{\contentsline {subsubsection}{\numberline {5.6.2}}{10}{subsubsection.5.6.2}}
\@writefile{toc}{\contentsline {paragraph}{\numberline {5.6.2.1}}{10}{paragraph.5.6.2.1}}
\@writefile{toc}{\contentsline {paragraph}{\numberline {5.6.2.2}}{10}{paragraph.5.6.2.2}}
\@writefile{toc}{\contentsline {subsubsection}{\numberline {5.6.3}}{10}{subsubsection.5.6.3}}
\@writefile{toc}{\contentsline {subsubsection}{\numberline {5.6.4}}{11}{subsubsection.5.6.4}}
\@writefile{toc}{\contentsline {subsubsection}{\numberline {5.6.5}}{11}{subsubsection.5.6.5}}
\@writefile{toc}{\contentsline {subsubsection}{\numberline {5.6.6}}{11}{subsubsection.5.6.6}}
\@writefile{toc}{\contentsline {subsubsection}{\numberline {5.6.7}}{11}{subsubsection.5.6.7}}
\@writefile{toc}{\contentsline {subsubsection}{\numberline {5.6.8}}{11}{subsubsection.5.6.8}}
\@writefile{toc}{\contentsline {subsubsection}{\numberline {5.6.9}}{11}{subsubsection.5.6.9}}
\@writefile{toc}{\contentsline {subsection}{\numberline {5.7}Registrando resultados:}{11}{subsection.5.7}}
\@writefile{toc}{\contentsline {subsubsection}{\numberline {5.7.1}}{11}{subsubsection.5.7.1}}
\@writefile{toc}{\contentsline {paragraph}{\numberline {5.7.1.1}}{11}{paragraph.5.7.1.1}}
\@writefile{toc}{\contentsline {paragraph}{\numberline {5.7.1.2}}{11}{paragraph.5.7.1.2}}
\@writefile{toc}{\contentsline {paragraph}{\numberline {5.7.1.3}}{11}{paragraph.5.7.1.3}}
\@writefile{toc}{\contentsline {subsubsection}{\numberline {5.7.2}}{11}{subsubsection.5.7.2}}
\@writefile{toc}{\contentsline {paragraph}{\numberline {5.7.2.1}}{11}{paragraph.5.7.2.1}}
\@writefile{toc}{\contentsline {subsubsection}{\numberline {5.7.3}}{12}{subsubsection.5.7.3}}
\@writefile{toc}{\contentsline {paragraph}{\numberline {5.7.3.1}}{12}{paragraph.5.7.3.1}}
\@writefile{toc}{\contentsline {subsubsection}{\numberline {5.7.4}}{12}{subsubsection.5.7.4}}
\@writefile{toc}{\contentsline {subsubsection}{\numberline {5.7.5}}{12}{subsubsection.5.7.5}}
\@writefile{toc}{\contentsline {section}{\numberline {6}Resolu\IeC {\c c}\IeC {\~a}o Vendada}{12}{section.6}}
\@writefile{toc}{\contentsline {subsection}{\numberline {6.1}}{12}{subsection.6.1}}
\@writefile{toc}{\contentsline {subsubsection}{\numberline {6.1.1}}{12}{subsubsection.6.1.1}}
\@writefile{toc}{\contentsline {subsubsection}{\numberline {6.1.2}}{12}{subsubsection.6.1.2}}
\@writefile{toc}{\contentsline {subsection}{\numberline {6.2}}{12}{subsection.6.2}}
\@writefile{toc}{\contentsline {subsubsection}{\numberline {6.2.1}}{12}{subsubsection.6.2.1}}
\@writefile{toc}{\contentsline {subsubsection}{\numberline {6.2.2}}{12}{subsubsection.6.2.2}}
\@writefile{toc}{\contentsline {subsubsection}{\numberline {6.2.3}}{12}{subsubsection.6.2.3}}
\@writefile{toc}{\contentsline {subsubsection}{\numberline {6.2.4}}{12}{subsubsection.6.2.4}}
\@writefile{toc}{\contentsline {paragraph}{\numberline {6.2.4.1}}{12}{paragraph.6.2.4.1}}
\@writefile{toc}{\contentsline {subsubsection}{\numberline {6.2.5}}{13}{subsubsection.6.2.5}}
\@writefile{toc}{\contentsline {subsubsection}{\numberline {6.2.6}}{13}{subsubsection.6.2.6}}
\@writefile{toc}{\contentsline {subsection}{\numberline {6.3}}{13}{subsection.6.3}}
\@writefile{toc}{\contentsline {subsubsection}{\numberline {6.3.1}}{13}{subsubsection.6.3.1}}
\@writefile{toc}{\contentsline {subsubsection}{\numberline {6.3.2}}{13}{subsubsection.6.3.2}}
\@writefile{toc}{\contentsline {subsubsection}{\numberline {6.3.3}}{13}{subsubsection.6.3.3}}
\@writefile{toc}{\contentsline {subsection}{\numberline {6.4}}{13}{subsection.6.4}}
\@writefile{toc}{\contentsline {subsubsection}{\numberline {6.4.1}}{13}{subsubsection.6.4.1}}
\@writefile{toc}{\contentsline {subsubsection}{\numberline {6.4.2}}{13}{subsubsection.6.4.2}}
\@writefile{toc}{\contentsline {subsubsection}{\numberline {6.4.3}}{13}{subsubsection.6.4.3}}
\@writefile{toc}{\contentsline {paragraph}{\numberline {6.4.3.1}}{13}{paragraph.6.4.3.1}}
\@writefile{toc}{\contentsline {paragraph}{\numberline {6.4.3.2}}{13}{paragraph.6.4.3.2}}
\@writefile{toc}{\contentsline {paragraph}{\numberline {6.4.3.3}}{13}{paragraph.6.4.3.3}}
\@writefile{toc}{\contentsline {subsubsection}{\numberline {6.4.4}}{13}{subsubsection.6.4.4}}
\@writefile{toc}{\contentsline {subsubsection}{\numberline {6.4.5}}{13}{subsubsection.6.4.5}}
\@writefile{toc}{\contentsline {subsection}{\numberline {6.5}}{14}{subsection.6.5}}
\@writefile{toc}{\contentsline {subsubsection}{\numberline {6.5.1}}{14}{subsubsection.6.5.1}}
\@writefile{toc}{\contentsline {subsubsection}{\numberline {6.5.2}}{14}{subsubsection.6.5.2}}
\@writefile{toc}{\contentsline {subsubsection}{\numberline {6.5.3}}{14}{subsubsection.6.5.3}}
\@writefile{toc}{\contentsline {section}{\numberline {7}Resolu\IeC {\c c}\IeC {\~a}o com uma m\IeC {\~a}o}{14}{section.7}}
\@writefile{toc}{\contentsline {subsection}{\numberline {7.1}}{14}{subsection.7.1}}
\@writefile{toc}{\contentsline {subsubsection}{\numberline {7.1.1}}{14}{subsubsection.7.1.1}}
\@writefile{toc}{\contentsline {subsubsection}{\numberline {7.1.2}}{14}{subsubsection.7.1.2}}
\@writefile{toc}{\contentsline {subsubsection}{\numberline {7.1.3}}{14}{subsubsection.7.1.3}}
\@writefile{toc}{\contentsline {subsubsection}{\numberline {7.1.4}}{14}{subsubsection.7.1.4}}
