\babel@toc {brazil}{}
\contentsline {section}{\numberline {1}Responsabilidades do Participante}{3}{section.1}
\contentsline {section}{\numberline {2}Quantidade de Membros por Equipe nos Boxes}{3}{section.2}
\contentsline {section}{\numberline {3}Passes de Boxes}{3}{section.3}
\contentsline {section}{\numberline {4}Seguran\IeC {\c c}a e Comportamento nos Boxes}{3}{section.4}
\contentsline {subsection}{\numberline {4.1}Procedimentos Espec\IeC {\'\i }ficos na \IeC {\'A}rea de Boxes}{3}{subsection.4.1}
