\relax 
\providecommand\hyper@newdestlabel[2]{}
\catcode `"\active 
\providecommand\HyperFirstAtBeginDocument{\AtBeginDocument}
\HyperFirstAtBeginDocument{\ifx\hyper@anchor\@undefined
\global\let\oldcontentsline\contentsline
\gdef\contentsline#1#2#3#4{\oldcontentsline{#1}{#2}{#3}}
\global\let\oldnewlabel\newlabel
\gdef\newlabel#1#2{\newlabelxx{#1}#2}
\gdef\newlabelxx#1#2#3#4#5#6{\oldnewlabel{#1}{{#2}{#3}}}
\AtEndDocument{\ifx\hyper@anchor\@undefined
\let\contentsline\oldcontentsline
\let\newlabel\oldnewlabel
\fi}
\fi}
\global\let\hyper@last\relax 
\gdef\HyperFirstAtBeginDocument#1{#1}
\providecommand\HyField@AuxAddToFields[1]{}
\providecommand\HyField@AuxAddToCoFields[2]{}
\babel@aux{brazil}{}
\@writefile{toc}{\contentsline {section}{\numberline {1}Responsabilidades do Participante}{3}{section.1}}
\@writefile{toc}{\contentsline {section}{\numberline {2}Quantidade de Membros por Equipe nos Boxes}{3}{section.2}}
\@writefile{toc}{\contentsline {section}{\numberline {3}Passes de Boxes}{3}{section.3}}
\@writefile{toc}{\contentsline {section}{\numberline {4}Seguran\IeC {\c c}a e Comportamento nos Boxes}{3}{section.4}}
\@writefile{toc}{\contentsline {subsection}{\numberline {4.1}Procedimentos Espec\IeC {\'\i }ficos na \IeC {\'A}rea de Boxes}{3}{subsection.4.1}}
